Bus Vicinity App =============================================
______________________________________________________________
Discription:
An application using the Bristol API to allow users to
search for the closest bus station to thier current
location. This will include the timetable for that
paticular station.
______________________________________________________________